
shimeng li
N16479448

The estimated standard deviation is 13.016083445943897
2.# of simulation to price european call option: 7154582
3.European call price is 6.2147233313571135
4.The estimated standard deviation is 5.727430454160297
5.# of simulation to price asian call option: 1385298
6.Asian call price is 2.204054221593144
